<?xml version="1.0" standalone="no"?>
<!DOCTYPE svg PUBLIC "-//W3C//DTD SVG 1.1//EN" "http://www.w3.org/Graphics/SVG/1.1/DTD/svg11.dtd" >
<svg xmlns="http://www.w3.org/2000/svg">
<metadata>Generated by IcoMoon</metadata>
<defs>
<font id="icomoon" horiz-adv-x="1024">
<font-face units-per-em="1024" ascent="960" descent="-64" />
<missing-glyph horiz-adv-x="1024" />
<glyph unicode="&#x20;" horiz-adv-x="512" d="" />
<glyph unicode="&#xe900;" glyph-name="right_arrow" horiz-adv-x="1599" d="M1069.962 960l-57.525-69.030 388.293-388.293h-1400.73v-106.479h1400.73l-388.293-388.293 74.782-71.906 511.971 517.724z" />
<glyph unicode="&#xe901;" glyph-name="engrenages" horiz-adv-x="976" d="M312.68 310.351c-2.395 0.885-4.435 2.232-6.099 3.946l-0.004 0.004c-2.888 2.972-4.668 7.033-4.668 11.511 0 0.118 0.001 0.236 0.004 0.353v-0.018c0.054 1.216 0.085 2.642 0.085 4.076 0 53.94-43.727 97.667-97.667 97.667-30.498 0-57.732-13.979-75.642-35.88l-0.138-0.174c-2.645-3.396-6.584-5.677-11.064-6.098l-0.063-0.005c-0.35-0.025-0.758-0.040-1.17-0.040-4.21 0-8.068 1.508-11.063 4.012l0.027-0.022c-26.875 23.552-49.56 51.037-67.358 81.709l-0.832 1.553c-1.357 2.253-2.159 4.972-2.159 7.879 0 1.672 0.266 3.282 0.757 4.791l-0.031-0.109c1.315 4.2 4.134 7.601 7.811 9.645l0.085 0.043c31.319 16.6 52.29 48.993 52.29 86.284 0 5.654-0.482 11.194-1.407 16.584l0.082-0.577c-6.036 34.821-29.584 63.012-61.069 75.502l-0.669 0.234c-5.476 2.205-11.877 3.959-18.524 4.964l-0.484 0.060c-4.483 0.788-8.274 3.278-10.753 6.766l-0.035 0.051c-1.816 2.521-2.905 5.672-2.905 9.077 0 1.235 0.143 2.437 0.414 3.589l-0.021-0.106c4.228 20.346 9.305 37.777 15.564 54.634l-0.841-2.585c6.988 18.827 14.842 34.915 24.052 50.088l-0.724-1.285c2.12 3.781 5.694 6.532 9.945 7.516l0.103 0.020c1.169 0.317 2.512 0.498 3.897 0.498 3.233 0 6.234-0.991 8.717-2.685l-0.053 0.034c5.041-3.275 10.838-6.283 16.927-8.718l0.683-0.241c10.23-3.924 22.065-6.196 34.43-6.196 23.623 0 45.308 8.295 62.303 22.13l-0.18-0.142c21.984 18.014 35.901 45.166 35.901 75.568 0 12.578-2.382 24.6-6.72 35.639l0.229-0.662c-0.657 1.734-1.038 3.739-1.038 5.834 0 2.434 0.514 4.748 1.44 6.84l-0.043-0.108c1.899 3.972 5.186 7.026 9.219 8.576l0.116 0.039c31.544 11.146 67.921 17.585 105.802 17.585 0.281 0 0.561 0 0.842-0.001h-0.044c4.639-0.050 8.822-1.962 11.844-5.022l0.002-0.002c2.888-2.971 4.668-7.032 4.668-11.509 0-0.119-0.001-0.237-0.004-0.355v0.018c-0.050-1.166-0.078-2.535-0.078-3.91 0-41.62 25.974-77.174 62.596-91.336l0.669-0.227c10.28-4.052 22.186-6.401 34.642-6.401 30.457 0 57.634 14.046 75.406 36.013l0.143 0.183c2.645 3.396 6.584 5.677 11.064 6.098l0.063 0.005c0.35 0.025 0.758 0.040 1.17 0.040 4.21 0 8.068-1.508 11.063-4.012l-0.027 0.022c26.868-23.555 49.546-51.044 67.338-81.719l0.832-1.554c1.32-2.293 2.099-5.042 2.099-7.973 0-6.149-3.427-11.497-8.476-14.239l-0.085-0.042c-31.318-16.6-52.287-48.992-52.287-86.282 0-5.647 0.481-11.181 1.404-16.565l-0.082 0.577c6.036-34.818 29.582-63.006 61.064-75.497l0.669-0.234c5.476-2.205 11.877-3.959 18.524-4.964l0.484-0.060c4.483-0.788 8.274-3.278 10.753-6.766l0.035-0.051c1.816-2.521 2.905-5.672 2.905-9.077 0-1.235-0.143-2.437-0.414-3.589l0.021 0.106c-4.217-20.352-9.286-37.791-15.537-54.656l0.839 2.586c-6.988-18.828-14.842-34.915-24.052-50.088l0.724 1.285c-2.118-3.794-5.699-6.556-9.96-7.542l-0.103-0.020c-1.169-0.317-2.512-0.498-3.897-0.498-3.233 0-6.234 0.991-8.717 2.685l0.053-0.034c-5.036 3.279-10.826 6.292-16.907 8.733l-0.682 0.242c-10.276 4.007-22.172 6.329-34.61 6.329-54.014 0-97.8-43.787-97.8-97.8 0-12.536 2.359-24.521 6.656-35.536l-0.229 0.666c0.688-1.736 1.087-3.747 1.087-5.851 0-7.018-4.439-12.999-10.663-15.288l-0.113-0.036c-31.439-11.148-67.699-17.59-105.463-17.59-0.273 0-0.546 0-0.819 0.001h0.042c-0.185-0.009-0.403-0.013-0.621-0.013-1.978 0-3.862 0.402-5.576 1.128l0.094-0.035zM73.635 475.817c12.393-19.232 26.12-35.932 41.54-50.897l0.070-0.068c23.253 21.894 54.666 35.348 89.222 35.348 67.719 0 123.37-51.669 129.681-117.735l0.041-0.526c23.472 1.19 45.551 5.051 66.605 11.297l-2-0.509c-2.244 9.035-3.531 19.408-3.531 30.081 0 71.743 58.159 129.902 129.902 129.902 16.634 0 32.538-3.127 47.156-8.824l-0.885 0.303c3.228-1.122 5.954-2.336 8.558-3.746l-0.303 0.15c4.259 8.042 8.729 17.98 12.627 28.201l0.653 1.949c3.205 7.99 6.639 18.389 9.533 29.011l0.515 2.217c-3.501 0.954-6.367 1.934-9.156 3.066l0.541-0.194c-43.079 16.681-74.653 54.331-82.445 100.085l-0.109 0.772c-1.133 6.43-1.781 13.833-1.781 21.388 0 43.695 21.671 82.329 54.851 105.74l0.407 0.273c-12.393 19.232-26.12 35.932-41.54 50.897l-0.070 0.068c-23.12-21.988-54.467-35.514-88.973-35.514-16.664 0-32.591 3.154-47.216 8.899l0.877-0.304c-45.853 17.775-78.742 59.43-83.585 109.297l-0.042 0.534c-23.472-1.19-45.551-5.051-66.605-11.297l2.001 0.509c2.24-9.028 3.525-19.393 3.525-30.058 0-71.743-58.159-129.902-129.902-129.902-16.632 0-32.534 3.126-47.151 8.822l0.885-0.303c-3.228 1.122-5.954 2.336-8.558 3.746l0.303-0.15c-4.259-8.042-8.729-17.979-12.627-28.2l-0.653-1.949c-3.95-10.408-7.192-20.816-10.048-31.228 3.501-0.954 6.367-1.934 9.156-3.066l-0.541 0.194c43.079-16.681 74.653-54.331 82.445-100.085l0.109-0.772c1.058-6.245 1.662-13.44 1.662-20.776 0-43.858-21.603-82.67-54.749-106.376l-0.396-0.269zM285.043 543.293c-37.137 14.321-63.005 49.723-63.005 91.167 0 53.826 43.635 97.461 97.461 97.461s97.461-43.635 97.461-97.461c0-12.383-2.309-24.227-6.521-35.124l0.226 0.666c-14.378-37.119-49.796-62.961-91.25-62.961-12.35 0-24.165 2.294-35.041 6.479l0.668-0.226zM342.47 695.475c-6.872 2.694-14.829 4.256-23.151 4.256-35.949 0-65.092-29.143-65.092-65.092s29.143-65.092 65.092-65.092c27.628 0 51.235 17.212 60.685 41.498l0.152 0.444c2.762 6.929 4.363 14.958 4.363 23.362 0 27.601-17.276 51.168-41.605 60.475l-0.444 0.149zM621.354-43.184c-1.361 1.285-2.454 2.837-3.197 4.575l-0.034 0.089c-0.571 1.368-0.903 2.957-0.903 4.623 0 1.976 0.466 3.842 1.295 5.496l-0.032-0.071c4.297 9.311 6.803 20.206 6.803 31.685 0 42.628-34.557 77.185-77.185 77.185-13.829 0-26.809-3.637-38.034-10.006l0.383 0.2c-1.789-1.053-3.942-1.675-6.24-1.675-1.361 0-2.671 0.218-3.897 0.622l0.088-0.025c-3.406 1.119-6.166 3.414-7.86 6.394l-0.036 0.069c-12.162 23.506-21.205 50.803-25.654 79.617l-0.19 1.498c-0.074 0.528-0.117 1.138-0.117 1.757 0 2.989 0.987 5.747 2.653 7.966l-0.025-0.034c2.11 2.787 5.293 4.666 8.922 5.020l0.052 0.004c39.093 4.189 69.271 36.999 69.271 76.857 0 22.55-9.659 42.843-25.065 56.969l-0.057 0.052c-3.706 3.41-7.817 6.493-12.218 9.143l-0.342 0.191c-3.877 2.283-6.437 6.436-6.437 11.188 0 2.649 0.796 5.112 2.162 7.163l-0.030-0.047c8.336 12.648 16.957 23.665 26.377 33.937l-0.178-0.196c9.656 10.349 19.851 19.861 30.67 28.633l0.558 0.438c2.031 1.686 4.665 2.709 7.538 2.709 0.76 0 1.504-0.072 2.225-0.209l-0.074 0.012c3.523-0.525 6.541-2.364 8.593-4.994l0.022-0.030c3.076-4.471 6.505-8.356 10.345-11.791l0.062-0.055c13.669-12.485 31.942-20.133 52-20.133 42.263 0 76.597 33.952 77.213 76.069l0.001 0.058c0.004 3.66 1.516 6.966 3.947 9.331l0.003 0.003c2.371 2.229 5.572 3.598 9.093 3.598 0.085 0 0.169-0.001 0.253-0.002h-0.013c30.349-1.507 58.755-8.093 84.959-18.923l-1.692 0.619c3.225-1.442 5.75-3.967 7.156-7.103l0.036-0.089c0.571-1.368 0.903-2.957 0.903-4.623 0-1.976-0.466-3.842-1.295-5.496l0.032 0.071c-4.297-9.311-6.803-20.206-6.803-31.685 0-42.628 34.557-77.185 77.185-77.185 13.829 0 26.809 3.637 38.034 10.006l-0.383-0.2c1.789 1.053 3.942 1.675 6.24 1.675 1.361 0 2.671-0.218 3.897-0.622l-0.088 0.025c3.406-1.119 6.166-3.414 7.86-6.394l0.036-0.069c12.162-23.506 21.205-50.803 25.654-79.617l0.19-1.498c0.074-0.528 0.117-1.138 0.117-1.757 0-2.989-0.987-5.747-2.653-7.966l0.025 0.034c-2.11-2.787-5.293-4.666-8.922-5.020l-0.052-0.004c-33.363-3.637-60.145-27.992-67.377-59.78l-0.099-0.519c-1.144-4.982-1.8-10.702-1.8-16.576 0-28.058 14.964-52.621 37.347-66.143l0.346-0.194c3.877-2.283 6.437-6.436 6.437-11.188 0-2.649-0.796-5.112-2.162-7.163l0.030 0.047c-8.336-12.648-16.957-23.665-26.377-33.937l0.178 0.196c-9.656-10.349-19.851-19.86-30.67-28.633l-0.558-0.438c-2.031-1.686-4.665-2.709-7.538-2.709-0.76 0-1.504 0.072-2.225 0.209l0.074-0.012c-3.474 0.681-6.446 2.481-8.598 5.003l-0.017 0.021c-3.076 4.471-6.505 8.356-10.345 11.791l-0.062 0.055c-13.669 12.485-31.942 20.133-52 20.133-42.263 0-76.597-33.952-77.213-76.069l-0.001-0.058c-0.004-3.66-1.516-6.966-3.947-9.331l-0.003-0.003c-2.371-2.229-5.572-3.598-9.093-3.598-0.085 0-0.169 0.001-0.253 0.002h0.013c-30.349 1.507-58.755 8.093-84.959 18.923l1.692-0.619c-1.516 0.664-2.82 1.507-3.966 2.525l0.015-0.013zM494.298 148.481c3.608-18.693 9.073-35.281 16.347-50.855l-0.555 1.323c11.211 4.553 24.215 7.195 37.837 7.195 56.93 0 103.081-46.151 103.081-103.081 0-10.342-1.523-20.329-4.357-29.748l0.189 0.73c14.72-5.273 31.873-9.199 49.643-11.046l0.963-0.081c7.452 50.079 50.152 88.060 101.723 88.060 26.826 0 51.251-10.277 69.554-27.108l-0.073 0.067c1.866-1.511 3.513-3.159 4.975-4.962l0.049-0.062c6.672 5.84 12.763 11.817 18.5 18.122l0.163 0.182c5.743 6.462 11.487 13.279 16.511 20.101-1.793 1.433-3.596 3.231-5.384 4.664-20.687 18.855-33.618 45.913-33.618 75.991 0 48.247 33.27 88.723 78.12 99.737l0.704 0.146c-3.608 18.693-9.073 35.281-16.347 50.856l0.555-1.324c-11.211-4.553-24.215-7.195-37.837-7.195-56.93 0-103.081 46.151-103.081 103.081 0 10.342 1.523 20.329 4.357 29.748l-0.189-0.73c-14.72 5.273-31.872 9.199-49.642 11.046l-0.963 0.081c-7.452-50.079-50.152-88.060-101.723-88.060-26.826 0-51.251 10.277-69.554 27.108l0.073-0.067c-1.866 1.511-3.513 3.159-4.975 4.962l-0.049 0.062c-6.672-5.84-12.763-11.817-18.5-18.122l-0.163-0.182c-5.743-6.462-11.487-13.279-16.511-20.101 1.793-1.433 3.596-3.231 5.384-4.664 20.639-18.995 33.525-46.14 33.525-76.294 0-7.683-0.837-15.171-2.424-22.378l0.127 0.687c-8.543-38.625-38.065-68.63-75.742-77.746l-0.698-0.143zM669.447 136.275c-15.505 14.176-25.192 34.491-25.192 57.069 0 42.656 34.58 77.236 77.236 77.236s77.236-34.58 77.236-77.236c0-20.079-7.662-38.368-20.222-52.104l0.053 0.059c-14.216-15.436-34.526-25.073-57.087-25.073-20.052 0-38.326 7.613-52.090 20.107l0.064-0.057zM756.29 231.034c-9.095 8.342-21.27 13.454-34.639 13.454-28.343 0-51.32-22.977-51.32-51.32s22.977-51.32 51.32-51.32c14.976 0 28.455 6.415 37.836 16.648l0.034 0.038c8.295 9.109 13.375 21.272 13.375 34.623 0 14.963-6.382 28.436-16.572 37.845l-0.035 0.032z" />
<glyph unicode="&#xe902;" glyph-name="hr_rouge" horiz-adv-x="12288" d="M0 960h12288v-1024h-12288v1024z" />
<glyph unicode="&#xe903;" glyph-name="menu" horiz-adv-x="1536" d="M0-64v170.648h1536.019v-170.648zM0 362.657v170.686h1536.019v-170.686zM0 960h1536.019v-170.686h-1536.019z" />
<glyph unicode="&#xe904;" glyph-name="croix" d="M1023.848-64h-182.017l-293.465 392.020c-10.438 14.608-20.21 31.236-28.47 48.718l-0.842 1.982h-3.565q-8.873-16.419-30.336-50.699l-302.073-392.020h-183.079l426.452 514.844-392.665 509.004h183.079l260.399-359.75c15.057-20.402 30.116-43.731 43.736-67.977l1.769-3.426h3.565c16.928 28.644 33.368 52.88 51.12 76.057l-1.33-1.809 270.865 356.906h171.514l-400.818-507.563z" />
<glyph unicode="&#xe905;" glyph-name="developpement" horiz-adv-x="2161" d="M1649.532-63.784c-15.686 0.036-29.885 6.372-40.207 16.611l0.004-0.004c-10.28 10.286-16.639 24.493-16.639 40.185s6.358 29.899 16.639 40.186l414.787 414.787-414.788 414.824c-10.278 10.28-16.636 24.481-16.636 40.167s6.357 29.887 16.636 40.168v0c10.282 10.289 24.491 16.654 40.185 16.654s29.903-6.364 40.185-16.653v0l455.099-454.991c10.295-10.299 16.663-24.526 16.663-40.24s-6.368-29.94-16.663-40.24l-455.099-454.991c-10.261-10.261-24.437-16.607-40.094-16.607-0.026 0-0.051 0-0.077 0h0.004zM766.244-55.21c-16.126 10.209-26.677 27.952-26.677 48.161 0 11.177 3.228 21.601 8.802 30.389l-0.137-0.232 568.721 910.234c10.269 16.113 28.045 26.647 48.281 26.647 11.181 0 21.611-3.216 30.416-8.773l-0.235 0.139c16.106-10.278 26.633-28.056 26.633-48.292 0-11.176-3.211-21.602-8.76-30.405l0.139 0.236-568.865-910.090c-10.19-16.135-27.928-26.694-48.131-26.694-0.024 0-0.049 0-0.073 0h0.004c-0.006 0-0.014 0-0.021 0-11.147 0-21.539 3.235-30.287 8.818l0.227-0.136zM471.598-47.176l-454.991 454.991c-10.287 10.303-16.648 24.529-16.648 40.24s6.361 29.936 16.649 40.24l454.99 454.99c10.309 10.289 24.54 16.651 40.258 16.651s29.948-6.362 40.258-16.652l-0.001 0.001c10.278-10.28 16.636-24.481 16.636-40.167s-6.357-29.887-16.636-40.168l-414.787-414.823 414.788-414.788c10.28-10.313 16.636-24.543 16.636-40.258s-6.356-29.944-16.638-40.259l0.002 0.002c-10.322-10.178-24.506-16.464-40.157-16.464-0.067 0-0.134 0-0.201 0h0.010c-15.64 0.020-29.809 6.301-40.139 16.47l0.007-0.007z" />
<glyph unicode="&#xe906;" glyph-name="design" d="M1006.539 32.498l-371.627 371.627 334.855 334.908c14.081 14.118 22.788 33.603 22.788 55.122s-8.707 41.003-22.79 55.123l0.002-0.002-56.491 56.562c-14.144 14.076-33.648 22.777-55.184 22.777s-41.040-8.701-55.187-22.78l-334.87-334.888-371.627 371.627c-10.206 10.769-24.611 17.47-40.581 17.47-30.855 0-55.868-25.013-55.868-55.868 0-0.553 0.008-1.105 0.024-1.654l-0.002 0.081v-888.579c0.071-43.056 34.965-77.938 78.019-77.988h888.583c0.457-0.013 0.994-0.021 1.534-0.021 30.855 0 55.868 25.013 55.868 55.868 0 15.942-6.678 30.325-17.388 40.504l-0.024 0.022zM338.002 248.131h130.016c7.18 0.011 13.68 2.908 18.405 7.594l7.591 7.591 119.276-119.241h-379.308c-14.332 0.030-25.94 11.645-25.961 25.976v379.31l119.134-119.258-7.593-7.593c-4.691-4.7-7.593-11.188-7.593-18.353 0-0.018 0-0.035 0-0.053v0.003-130.016c0.010-14.353 11.643-25.986 25.995-25.996h0.001zM457.261 300.141h-93.244v93.244l416.079 416.079 93.244-93.244-416.079-416.079zM858.102 876.66c0.022 0 0.048 0 0.075 0 7.148 0 13.624-2.879 18.331-7.541l56.489-56.471c4.702-4.707 7.61-11.207 7.61-18.386s-2.908-13.679-7.611-18.386v0l-22.831-22.831-93.262 93.244 22.831 22.831c4.659 4.659 11.096 7.54 18.205 7.54 0.076 0 0.152 0 0.228-0.001h-0.012zM971.634-9.518c-0.924-1.48-2.543-2.45-4.389-2.45-0.252 0-0.499 0.018-0.742 0.053l0.028-0.003h-888.561c-14.353 0.010-25.986 11.643-25.996 25.995v78.025h25.996c14.362 0 26.005 11.643 26.005 26.005s-11.643 26.005-26.005 26.005h-26.014v104.020h26.014c14.362 0 26.005 11.643 26.005 26.005s-11.643 26.005-26.005 26.005h-26.014v104.020h26.014c14.362 0 26.005 11.643 26.005 26.005s-11.643 26.005-26.005 26.005v0h-26.014v103.984h26.014c14.362 0 26.005 11.643 26.005 26.005s-11.643 26.005-26.005 26.005v0h-26.014v290.491c-0.032 0.215-0.050 0.462-0.050 0.714 0 1.846 0.97 3.466 2.428 4.377l0.022 0.013c0.358 0.092 0.77 0.145 1.194 0.145 1.632 0 3.081-0.786 3.989-1.999l0.009-0.013 371.627-371.627-67.213-67.284-126.851 126.851c-8.969 11.58-22.876 18.963-38.507 18.963-5.657 0-11.088-0.967-16.137-2.745l0.34 0.104c-8.055-3.325-26.832-14.918-26.832-49.93v-390.066c0.061-43.057 34.949-77.945 78-78.006h390.125c35.047 0 46.604 18.777 49.93 26.832 1.673 4.709 2.64 10.14 2.64 15.797 0 15.631-7.383 29.538-18.852 38.424l-0.111 0.083-126.851 126.851 67.248 67.248 371.627-371.627c1.298-1.298 2.703-3.272 1.867-5.192z" />
<glyph unicode="&#xe907;" glyph-name="strategie" horiz-adv-x="1160" d="M914.821-63.961c-0.015 0-0.034 0-0.052 0-6.042 0-11.685 1.705-16.476 4.659l0.136-0.078c-7.344 4.712-12.51 12.272-13.952 21.085l-0.024 0.179c-4.695 29.508-29.914 51.807-60.359 51.903h-0.010c-30.442-0.145-55.639-22.417-60.342-51.55l-0.047-0.352c-1.379-9.018-6.563-16.605-13.832-21.19l-0.125-0.074c-4.608-2.876-10.204-4.581-16.199-4.581-0.007 0-0.014 0-0.021 0h0.001c-0.035 0-0.077 0-0.119 0-3.19 0-6.269 0.473-9.171 1.354l0.223-0.058c-49.821 15.918-92.686 41.331-128.43 74.342l0.229-0.209c-6.047 5.578-9.822 13.542-9.822 22.388 0 0.4 0.008 0.798 0.023 1.194l-0.002-0.057c0.384 9.207 4.757 17.32 11.424 22.706l0.058 0.046c13.936 11.381 22.763 28.564 22.763 47.808 0 11.211-2.996 21.722-8.23 30.777l0.158-0.297c-10.773 18.344-30.405 30.465-52.867 30.465-0.021 0-0.042 0-0.063 0h0.003c-0.117 0.001-0.256 0.001-0.395 0.001-7.835 0-15.313-1.527-22.154-4.299l0.396 0.142c-3.332-1.37-7.2-2.165-11.254-2.165-0.006 0-0.011 0-0.017 0h0.001c-5.18 0.020-10.055 1.305-14.339 3.561l0.17-0.082c-7.761 4.256-13.416 11.531-15.424 20.205l-0.041 0.209c-5.222 22.192-8.228 47.679-8.254 73.864v0.018c0 0.037 0 0.081 0 0.125 0 26.263 3.008 51.824 8.698 76.357l-0.444-2.271c2.056 8.807 7.716 16.005 15.302 20.082l0.163 0.080c4.122 2.254 9.028 3.584 14.243 3.595h0.003c4.028-0.004 7.874-0.777 11.401-2.18l-0.209 0.073c6.555-2.696 14.162-4.283 22.134-4.33h0.019c22.506 0.058 42.155 12.236 52.771 30.35l0.157 0.289c5.092 8.752 8.097 19.262 8.097 30.474 0 19.228-8.839 36.391-22.676 47.649l-0.113 0.089c-6.776 5.353-11.17 13.461-11.481 22.605l-0.001 0.050c-0.013 0.338-0.021 0.734-0.021 1.133 0 8.877 3.773 16.873 9.802 22.471l0.019 0.018c35.494 32.812 78.369 58.202 125.812 73.376l2.389 0.66c2.691 0.895 5.79 1.411 9.009 1.411 0.027 0 0.054 0 0.081 0h-0.004c6.010-0.002 11.61-1.752 16.32-4.77l-0.121 0.073c7.404-4.647 12.594-12.24 13.936-21.097l0.021-0.167c4.712-29.506 29.931-51.8 60.378-51.903h0.011c30.431 0.163 55.613 22.427 60.322 51.55l0.047 0.353c1.378 9.022 6.571 16.613 13.85 21.19l0.126 0.074c4.598 2.938 10.203 4.687 16.216 4.697h0.003c0.021 0 0.045 0 0.069 0 3.215 0 6.309-0.516 9.204-1.47l-0.208 0.059c49.84-15.802 92.721-41.197 128.422-74.238l-0.221 0.202c6.050-5.56 9.828-13.51 9.828-22.342 0-0.45-0.010-0.898-0.029-1.343l0.002 0.063c-0.413-9.17-4.78-17.244-11.424-22.61l-0.058-0.046c-13.952-11.342-22.794-28.505-22.794-47.733 0-11.214 3.008-21.726 8.26-30.773l-0.157 0.294c10.752-18.422 30.413-30.611 52.923-30.639h0.004c7.991 0.047 15.598 1.633 22.558 4.476l-0.405-0.146c3.333 1.309 7.194 2.068 11.231 2.068v0c0.010 0 0.022 0 0.034 0 5.19 0 10.073-1.317 14.332-3.635l-0.158 0.078c7.737-4.171 13.391-11.362 15.423-19.954l0.041-0.208c5.245-22.299 8.253-47.903 8.254-74.21v-0.001c0-0.081 0-0.176 0-0.271 0-26.098-3.008-51.493-8.696-75.858l0.442 2.247c-2.009-8.899-7.677-16.189-15.303-20.333l-0.161-0.080c-4.123-2.192-9.013-3.485-14.204-3.499h-0.004c-0.018 0-0.039 0-0.061 0-4.027 0-7.866 0.803-11.367 2.257l0.196-0.072c-6.448 2.631-13.93 4.157-21.769 4.157-0.135 0-0.27 0-0.404-0.001h0.021c-0.008 0-0.017 0-0.026 0-22.472 0-42.114-12.119-52.745-30.179l-0.156-0.286c-5.076-8.758-8.072-19.269-8.072-30.48 0-19.244 8.827-36.427 22.652-47.721l0.111-0.088c6.765-5.401 11.153-13.533 11.481-22.699l0.002-0.053c0.010-0.293 0.016-0.637 0.016-0.982 0-8.893-3.77-16.905-9.798-22.526l-0.018-0.017c-35.512-32.805-78.378-58.219-125.802-73.467l-2.398-0.666c-2.635-0.822-5.665-1.295-8.806-1.295-0.030 0-0.061 0-0.091 0h0.005zM559.621 227.544c44.953-0.047 84.225-24.324 105.465-60.472l0.312-0.575c10.305-17.484 16.393-38.52 16.393-60.978 0-8.189-0.809-16.189-2.353-23.924l0.129 0.775c-3.383-17.13-9.904-32.306-18.983-45.596l0.271 0.42c15.439-11.653 32.982-22.001 51.656-30.259l1.697-0.67c7.504 15.263 17.532 28.164 29.676 38.688l0.151 0.128c21.28 18.53 49.283 29.827 79.924 29.827 0.016 0 0.033 0 0.049 0h-0.003c0.024 0 0.052 0 0.080 0 30.655 0 58.672-11.296 80.115-29.953l-0.148 0.126c12.216-10.714 22.229-23.599 29.5-38.096l0.327-0.719c20.342 8.965 37.856 19.31 53.964 31.425l-0.688-0.496c-8.815 12.863-15.316 28.047-18.511 44.413l-0.124 0.763c-1.433 6.991-2.253 15.026-2.253 23.253 0 22.449 6.107 43.471 16.75 61.496l-0.308-0.564c21.552 36.722 60.824 60.999 105.77 61.046h0.007c2.842 0 5.703 0 8.544-0.309 1.071 9.054 1.682 19.542 1.682 30.172 0 0.212 0 0.424-0.001 0.635v-0.033c0 0.193 0.001 0.423 0.001 0.652 0 10.667-0.611 21.192-1.801 31.54l0.118-1.263c-2.919-0.135-5.703-0.213-8.544-0.213-44.947 0.052-84.215 24.318-105.465 60.453l-0.312 0.574c-10.323 17.49-16.422 38.539-16.422 61.012 0 8.204 0.813 16.219 2.362 23.968l-0.129-0.776c3.461 17.119 9.944 32.28 18.92 45.625l-0.285-0.45c-15.416 11.425-32.915 21.757-51.46 30.19l-1.815 0.739c-7.498-15.292-17.527-28.219-29.678-38.766l-0.149-0.127c-21.275-18.53-49.273-29.827-79.91-29.827-0.049 0-0.097 0-0.146 0h0.008c-0.059 0-0.128 0-0.198 0-30.593 0-58.547 11.298-79.917 29.95l0.144-0.123c-12.303 10.672-22.332 23.599-29.511 38.183l-0.316 0.71c-20.39-9.168-37.915-19.501-54.144-31.487l0.791 0.558c8.773-12.879 15.289-28.048 18.579-44.385l0.133-0.79c1.415-6.968 2.226-14.977 2.226-23.176 0-22.475-6.088-43.528-16.706-61.6l0.311 0.572c-21.562-36.709-60.83-60.975-105.77-61.027h-0.007c-2.919 0-5.799 0-8.544 0.213-1.12-9.213-1.759-19.88-1.759-30.697 0-0.082 0-0.163 0-0.245v0.012c0.008-10.852 0.647-21.546 1.882-32.058l-0.123 1.283c2.842 0.232 5.625 0.232 8.544 0.232zM824.006 166.498c-50.514 0.066-91.445 40.997-91.511 91.505v0.006c0.022 50.562 40.961 91.556 91.5 91.666h0.011c50.579-0.077 91.555-41.081 91.588-91.662v-0.003c-0.088-50.532-41.050-91.467-91.584-91.511h-0.004zM825.397 308.81c-27.758 0-50.26-22.502-50.26-50.26v0c0-27.758 22.502-50.26 50.26-50.26v0c27.758 0 50.26 22.502 50.26 50.26v0c-0.055 27.716-22.536 50.163-50.259 50.163 0 0 0 0 0 0v0zM396.761 166.498h-122.073c-16.874 0.011-30.551 13.687-30.562 30.561v305.251c0.033 16.843 13.695 30.484 30.542 30.484 0.007 0 0.014 0 0.020 0h122.072c16.827-0.022 30.462-13.657 30.484-30.482v-305.252c0 0 0 0 0 0 0-16.852-13.639-30.518-30.48-30.562h-0.004zM305.172 471.67v-244.126h61.046v244.126zM152.46 166.498h-122.073c-16.845 0.044-30.484 13.71-30.484 30.562 0 0 0 0 0 0v0 549.395c0.044 16.803 13.675 30.407 30.484 30.407 0 0 0 0 0 0h122.073c0.012 0 0.025 0 0.039 0 16.817 0 30.457-13.6 30.523-30.401v-549.401c-0.011-16.84-13.632-30.496-30.459-30.562h-0.006zM60.949 715.816v-488.272h61.027v488.272zM518.756 410.644c-16.886 0.033-30.562 13.729-30.562 30.62 0 0.007 0 0.014 0 0.020v-0.001 488.214c0.022 16.866 13.694 30.531 30.561 30.542h122.074c16.868-0.011 30.54-13.676 30.562-30.54v-244.070c0-0.006 0-0.013 0-0.019 0-16.89-13.676-30.587-30.559-30.62h-0.003c-16.886 0.033-30.562 13.729-30.562 30.62 0 0.007 0 0.014 0 0.020v-0.001 213.661h-61.046v-457.807c0-0.017 0-0.038 0-0.059 0-16.825-13.579-30.479-30.376-30.6h-0.011z" />
<glyph unicode="&#xe908;" glyph-name="icon_2_humans" horiz-adv-x="993" d="M317.487 960c0.011 0 0.025 0 0.038 0 116.648 0 211.21-94.562 211.21-211.21 0-56.114-21.883-107.117-57.58-144.941l0.096 0.103c11.478-6.665 21.301-13.396 30.591-20.769l-0.52 0.398c-10.124-14.453-18.734-31.052-25.017-48.752l-0.45-1.455c-27.989 28.377-64.008 48.765-104.372 57.478l-1.374 0.249c-1.436 0.302-2.498 1.559-2.498 3.063 0 1.417 0.942 2.613 2.234 2.997l0.022 0.006c63.552 22.414 108.277 81.951 108.277 151.935 0 88.772-71.964 160.737-160.737 160.737-0.060 0-0.12 0-0.18 0h-0.475c-0.048 0-0.105 0-0.162 0-88.747 0-160.69-71.943-160.69-160.69 0-69.759 44.452-129.136 106.576-151.351l1.122-0.35c1.306-0.502 2.216-1.747 2.216-3.204 0-1.635-1.146-3.002-2.678-3.342l-0.023-0.004c-158.822-34.972-195.686-222.935-210.741-317.284h411.601c-15.251-15.731-28.869-33.206-40.483-52.048l-0.751-1.309h-369.867c-29.172 0.071-52.802 23.701-52.873 52.866v3.399c2.387 63.723 15.798 123.66 38.37 178.88l-1.264-3.494c20.75 51.973 52.917 95.595 93.579 129.334l0.527 0.425c9.386 7.623 19.855 14.914 30.846 21.416l1.203 0.659c-35.585 37.742-57.456 88.755-57.456 144.876 0 116.743 94.639 211.382 211.382 211.382 0.020 0 0.040 0 0.061 0h-0.003zM676.2 675.5c0.014 0 0.030 0 0.046 0 116.648 0 211.21-94.562 211.21-211.21 0-56.114-21.883-107.117-57.58-144.94l0.096 0.103c12.194-7.161 22.663-14.452 32.532-22.454l-0.483 0.379c41.135-34.209 73.288-77.816 93.338-127.599l0.768-2.16c21.305-51.716 34.715-111.642 37.078-174.395l0.029-0.959v-3.392c-0.089-29.186-23.756-52.815-52.948-52.842h-528.699c-29.172 0.071-52.802 23.701-52.873 52.866v3.399c2.391 63.712 15.801 123.638 38.37 178.848l-1.264-3.494c8.712 20.663 17.725 38.035 27.913 54.607l-0.992-1.734h70.093c-53.842-72.274-72.274-170.992-81.975-231.377h529.705c-14.797 93.137-50.934 277.95-205.675 315.798-2.267 0.552-3.924 2.566-3.924 4.966 0 2.132 1.307 3.958 3.163 4.722l0.034 0.012c60.413 24.019 102.343 81.982 102.343 149.739 0 88.759-71.954 160.713-160.713 160.713-0.029 0-0.059 0-0.088 0h-0.48c-57.703-0.105-108.274-30.536-136.64-76.2l-0.397-0.685c-10.876 12.305-22.453 23.421-34.877 33.536l-0.533 0.421c-0.727 0.485-1.212 0.969-1.939 1.454 38.57 55.818 102.215 91.926 174.293 91.926 0.032 0 0.065 0 0.097 0h-0.005zM579.178 291.836c-2.666 16.009-6.066 33.956-10.67 52.873-32.946 29.481-53.588 72.127-53.6 119.595v0.002c-0.002 0.285-0.003 0.623-0.003 0.96 0 5.816 0.353 11.549 1.040 17.179l-0.067-0.676c-11.836 19.56-25.067 36.494-40.054 51.693l0.032-0.032c-7.381-20.605-11.648-44.377-11.648-69.145 0-56.095 21.884-107.079 57.581-144.879l-0.095 0.102c-12.194-7.161-22.663-14.452-32.532-22.454l0.483 0.379c-9.424-7.725-17.884-15.417-25.937-23.514l-0.015-0.015h83.194c9.168 6.145 19.756 12.124 30.795 17.301l1.496 0.631zM503.269 581.886c-0.727 0.485-1.212 0.969-1.939 1.454-10.124-14.453-18.734-31.052-25.017-48.752l-0.45-1.455c14.955-15.167 28.186-32.101 39.334-50.442l0.688-1.219c2.781 24.902 10.902 47.444 23.192 67.114l-0.391-0.671c-10.822 12.376-22.407 23.503-34.89 33.56l-0.528 0.412zM547.168 273.615h-83.186c-15.251-15.731-28.869-33.206-40.483-52.048l-0.751-1.309h70.093c15.367 20.666 33.309 38.3 53.604 52.864l0.723 0.493zM579.185 291.805c11.775 5.453 25.615 10.204 39.998 13.539l1.478 0.289c1.939 0.485 1.696 6.55 0.485 7.277-20.334 7.497-37.822 18.196-52.776 31.654l0.146-0.129c4.612-18.674 8.004-36.622 10.67-52.63z" />
<glyph unicode="&#xe909;" horiz-adv-x="824" d="M588.22-64c-2.981 0.036-5.829 0.558-8.483 1.488l0.186-0.057c-5.906 2.218-10.567 6.599-13.099 12.155l-0.059 0.145-106.402 234.541c-5.158 11.337-8.165 24.586-8.165 38.537 0 18.095 5.058 35.009 13.836 49.405l-0.237-0.419 1.145 1.718-17.161 48.912-4.575-3.144c-14.591-9.854-32.573-15.73-51.928-15.73-0.045 0-0.090 0-0.135 0h0.007c-0.126-0.001-0.275-0.001-0.424-0.001-7.881 0-15.519 1.043-22.783 2.998l0.612-0.14-3.979 1.133-9.15-32.891 0.859-1.718c8.873-14.192 14.136-31.432 14.136-49.901 0-13.929-2.993-27.159-8.371-39.081l0.242 0.6-106.402-234.541c-2.586-5.704-7.249-10.087-12.999-12.247l-0.16-0.053c-2.227-0.915-4.812-1.446-7.522-1.446-0.273 0-0.544 0.005-0.814 0.016l0.039-0.001c-3.524 0.093-6.852 0.821-9.91 2.072l0.188-0.068-212.823 96.107c-8.269 3.806-13.906 12.019-13.906 21.55 0 3.597 0.803 7.007 2.24 10.060l-0.061-0.144 106.402 234.535c13.152 27.815 38.645 47.927 69.214 53.402l0.575 0.085 2.004 0.286 62.351 104.386-4.002 2.004c-46.914 24.545-78.38 72.874-78.38 128.551 0 79.708 64.489 144.353 144.137 144.607h0.025c0.185 0.001 0.403 0.001 0.622 0.001 15.839 0 31.067-2.62 45.272-7.452l-0.99 0.292 1.432-0.596 1.432 0.596c13.278 4.539 28.576 7.159 44.486 7.159 0.147 0 0.294 0 0.441-0.001h-0.023c41.864-0.112 79.556-17.882 106.038-46.251l0.078-0.085 1.145-1.145 1.432-0.286c46.987-7.792 82.375-48.13 82.375-96.734 0-30.277-13.732-57.347-35.309-75.321l-0.158-0.128-2.863-2.577 2.577-3.43c0.286-0.286 0.286-0.596 0.596-0.596l90.953-152.738 2.004-0.286c31.107-5.65 56.566-25.73 69.542-52.912l0.248-0.576 106.402-234.541c1.326-2.879 2.1-6.246 2.1-9.794 0-9.543-5.594-17.779-13.681-21.609l-0.145-0.062-211.94-96.387c-2.925-1.424-6.363-2.257-9.996-2.257-0.118 0-0.235 0.001-0.353 0.003h0.018zM505.558 478.296c-1.318-22.312-8.833-42.638-20.83-59.564l0.24 0.356-1.145-1.432 0.286-1.718c1.185-5.548 1.91-11.957 2.003-18.52l0.001-0.073c-0.016-8.865-1.268-17.43-3.591-25.543l0.161 0.658-0.286-1.432 32.891-93.244c0.86-2.35 1.357-5.064 1.357-7.894 0-5.708-2.023-10.943-5.392-15.027l0.032 0.040c-7.387-8.487-11.89-19.653-11.89-31.872 0-6.878 1.427-13.422 4.001-19.354l-0.122 0.315 96.674-213.085 168.754 76.655-96.674 213.085c-7.968 16.324-24.422 27.383-43.465 27.439h-0.007c-8.314 0.328-15.523 4.773-19.679 11.341l-0.059 0.1-102.662 172.5zM214.672 319.837c-4.079-6.805-11.368-11.319-19.721-11.441h-0.017c-19.050-0.056-35.504-11.115-43.346-27.153l-0.126-0.286-96.674-213.103 168.754-76.655 96.674 213.085c2.452 5.617 3.879 12.161 3.879 19.039 0 12.218-4.503 23.385-11.94 31.931l0.050-0.059c-3.36 4.12-5.395 9.437-5.395 15.228 0 2.221 0.299 4.372 0.86 6.415l-0.040-0.17 16.016 57.49-1.432 1.718c-14.558 16.325-23.454 37.973-23.454 61.699 0 0.028 0 0.056 0 0.084v-0.004c-0.002 0.215-0.003 0.47-0.003 0.724 0 6.335 0.732 12.5 2.115 18.413l-0.107-0.545 0.286 1.718-1.145 1.432c-3.042 4.372-6.080 9.425-8.79 14.676l-0.36 0.768-3.43 7.158zM358.54 427.952c-7.447-8.073-12.013-18.902-12.013-30.797 0-0.033 0-0.067 0-0.1v0.005c0-25.432 20.617-46.049 46.049-46.049s46.049 20.617 46.049 46.049v0c0 0.028 0 0.062 0 0.095 0 11.895-4.566 22.724-12.042 30.829l0.029-0.031c19.079 11.706 31.641 32.409 31.751 56.054v0.016c0 0.075 0 0.164 0 0.253 0 9.107-1.894 17.771-5.309 25.621l0.161-0.415c11.192 7.876 20.385 17.806 27.199 29.311l0.239 0.437c2.836-0.544 6.099-0.857 9.435-0.859h0.002c27.961 0 50.627 22.667 50.627 50.627s-22.667 50.627-50.627 50.627v0c-3.338-0.002-6.601-0.315-9.764-0.91l0.327 0.051c-17.276 28.467-48.104 47.195-83.306 47.195-16.954 0-32.894-4.344-46.767-11.981l0.502 0.253c-13.378 7.409-29.333 11.769-46.306 11.769-53.563 0-96.984-43.421-96.984-96.984 0-53.552 43.404-96.967 96.953-96.984h0.001c0.245-0.002 0.535-0.004 0.825-0.004 7.941 0 15.639 1.044 22.963 3.002l-0.62-0.141c-0.547-3.214-0.859-6.916-0.859-10.691 0-0.062 0-0.125 0-0.187v0.010c0.013-23.621 12.485-44.327 31.201-55.902l0.282-0.162z" />
<glyph unicode="&#xe90a;" glyph-name="guirlande" horiz-adv-x="1021" d="M1000.33 172.386c8.175 0.061 15.173 5.036 18.192 12.114l0.049 0.13c0.971 2.295 1.535 4.963 1.535 7.763 0 5.412-2.107 10.331-5.545 13.983l0.010-0.010c-24.523 25.55-57.351 42.962-94.131 47.889l-0.821 0.090v186.161c5.986-1.571 12.857-2.473 19.94-2.473 22.566 0 42.993 9.157 57.768 23.958l0.001 0.001c14.873 14.991 24.065 35.638 24.065 58.432 0 1.244-0.027 2.482-0.082 3.713l0.006-0.175c-1.053 23.792-12.253 44.774-29.349 58.857l-0.138 0.111c-118.62 98.981-271.487 160.55-438.595 164.92l-0.937 0.019v191.854c-0.681 10.645-9.482 19.020-20.238 19.020s-19.557-8.376-20.235-18.961l-0.003-0.059v-191.854c-168.048-4.386-320.917-65.953-440.687-165.862l1.147 0.93c-18.116-15.113-29.56-37.696-29.56-62.951 0-22.66 9.213-43.169 24.097-57.984l0.003-0.003c14.709-14.817 35.087-23.99 57.608-23.99 0.037 0 0.073 0 0.11 0h-0.006c0.161-0.001 0.351-0.002 0.541-0.002 6.826 0 13.439 0.911 19.724 2.619l-0.526-0.122v-200.433l-37.731-76.43-89.235-13.001c-9.832-1.514-17.273-9.915-17.273-20.053 0-5.647 2.308-10.755 6.033-14.431l0.002-0.002 64.731-62.969-15.224-88.947c-0.182-1.020-0.286-2.194-0.286-3.392 0-6.685 3.235-12.614 8.225-16.308l0.055-0.039c3.269-2.334 7.342-3.736 11.742-3.751h0.004c0.046 0 0.101-0.001 0.155-0.001 3.323 0 6.453 0.832 9.191 2.298l-0.104-0.051 79.962 41.982 79.931-41.958c2.728-1.473 5.971-2.339 9.416-2.339 11.113 0 20.121 9.009 20.121 20.121 0 1.221-0.109 2.416-0.317 3.576l0.018-0.122-15.239 88.955 64.731 62.969c3.749 3.613 6.077 8.678 6.077 14.287 0 2.31-0.395 4.527-1.121 6.589l0.043-0.139c-2.446 7.199-8.6 12.519-16.128 13.726l-0.117 0.015-89.462 12.736-37.981 76.71v222.886c88.946 71.977 202.43 116.857 326.253 120.668l0.834 0.020v-172.668c-61.14-10.106-107.196-62.583-107.196-125.817 0-70.38 57.054-127.435 127.435-127.435s127.435 57.054 127.435 127.435c0 63.234-46.057 115.711-106.455 125.716l-0.742 0.101v172.676c124.632-4.039 238.063-48.882 328.142-121.519l-1.055 0.823v-208.894c-79.108-10.335-139.563-77.313-139.563-158.411 0-88.191 71.493-159.683 159.683-159.683 45.303 0 86.2 18.866 115.263 49.17l0.053 0.056c3.475 3.584 5.618 8.477 5.618 13.871 0 2.842-0.595 5.546-1.667 7.993l0.050-0.128c-2.971 7.239-9.966 12.245-18.13 12.245-0.039 0-0.079 0-0.118 0h0.006c-41.829 0.616-75.5 34.668-75.5 76.586s33.672 75.97 75.442 76.585l0.058 0.001zM191.222 136.152c2.936-5.873 8.514-10.047 15.133-10.984l0.106-0.012 59.475-8.743-42.98-41.982c-3.749-3.561-6.082-8.582-6.082-14.148 0-1.271 0.122-2.514 0.354-3.717l-0.020 0.123 10.248-59.217-53.228 27.983c-2.69 1.386-5.866 2.212-9.231 2.246h-0.011c-3.376-0.002-6.557-0.833-9.353-2.299l0.111 0.053-53.228-27.983 10.248 59.217c0.178 1.007 0.28 2.166 0.28 3.349 0 5.633-2.306 10.727-6.025 14.391l-0.002 0.002-42.98 41.982 59.475 8.743c6.697 1.023 12.246 5.171 15.185 10.882l0.054 0.115 26.516 53.976zM619.267 285.33c0-48.163-39.044-87.208-87.208-87.208s-87.208 39.044-87.208 87.208c0 48.163 39.044 87.208 87.208 87.208 0.011 0 0.022 0 0.033 0h-0.002c48.095-0.155 87.040-39.11 87.176-87.195v-0.013zM532.090 624.412c-0.755 0.003-1.649 0.005-2.543 0.005-144.056 0-276.098-51.441-378.758-136.956l0.955 0.774c-7.235-6.139-16.68-9.872-26.997-9.872-11.499 0-21.914 4.637-29.478 12.144l0.003-0.003c-7.592 7.706-12.281 18.291-12.281 29.972 0 0.62 0.013 1.236 0.039 1.849l-0.003-0.088c0.461 11.988 6.073 22.579 14.672 29.683l0.068 0.055c115.827 96.999 266.429 155.909 430.79 155.909 1.143 0 2.286-0.003 3.428-0.009l-0.176 0.001c0.955 0.005 2.085 0.008 3.216 0.008 164.374 0 314.987-58.919 431.871-156.79l-1.053 0.858c8.667-7.158 14.279-17.749 14.738-29.662l0.002-0.076c0.019-0.482 0.030-1.047 0.030-1.615 0-11.726-4.684-22.358-12.282-30.127l0.008 0.008c-7.56-7.497-17.97-12.129-29.463-12.129-10.322 0-19.772 3.737-27.069 9.933l0.060-0.050c-101.236 84.73-232.844 136.186-376.47 136.186-1.163 0-2.325-0.003-3.486-0.010l0.179 0.001zM953.63-10.281c-15.651-8.189-34.188-12.994-53.846-12.994-0.133 0-0.267 0-0.4 0.001h0.021c-65.965 0-119.441 53.475-119.441 119.441s53.475 119.441 119.441 119.441v0c0.113 0 0.246 0.001 0.38 0.001 19.659 0 38.195-4.805 54.5-13.304l-0.653 0.31c-40.998-18.679-68.983-59.299-68.983-106.455s27.985-87.776 68.254-106.157l0.729-0.298z" />
<glyph unicode="&#xe90b;" horiz-adv-x="824" d="M411.527 960c11.53 0 20.877-9.347 20.877-20.877v-101.404c0-11.53-9.347-20.877-20.877-20.877s-20.877 9.347-20.877 20.877v101.404c0 11.53 9.347 20.877 20.877 20.877z" />
<glyph unicode="&#xe90c;" horiz-adv-x="824" d="M202.598 903.243c8.153 8.153 21.372 8.153 29.525 0l71.703-71.703c8.153-8.153 8.153-21.372 0-29.525s-21.372-8.153-29.525 0l-71.703 71.703c-8.153 8.153-8.153 21.372 0 29.525z" />
<glyph unicode="&#xe90d;" horiz-adv-x="824" d="M625.935 903.25c8.153-8.153 8.153-21.372 0-29.525l-71.703-71.703c-8.153-8.153-21.372-8.153-29.525 0s-8.153 21.372 0 29.525l71.703 71.703c8.153 8.153 21.372 8.153 29.525 0z" />
</font></defs></svg>